…
```r
professor_stopwords %>% 
  group_by(word) %>% 
  summarise(uses = n()) %>% 
  arrange(desc(uses))
```

```
## `summarise()` ungrouping output (override with `.groups` argument)
```

```
## # A tibble: 16,073 x 2
##    word       uses
##    <chr>     <int>
##  1 class     14252
##  2 teacher    4086
##  3 professor  3907
##  4 easy       3514
##  5 hard       2633
##  6 students   2626
##  7 tests      2587
##  8 lot        2112
##  9 time       1919
## 10 don        1876
## # ... with 16,063 more rows
```
…
```r
professor_stopwords %>% 
  inner_join(get_sentiments("bing")) %>%
  count(professor_name, school_name, sentiment) %>%
  spread(sentiment, n, fill = 0) %>%
  mutate(sentiment = positive - negative) %>% 
  arrange(sentiment)
```

```
## Joining, by = "word"
```

```
## # A tibble: 1,402 x 5
##    professor_name     school_name                    negative positive sentiment
##    <chr>              <chr>                             <dbl>    <dbl>     <dbl>
##  1 Daniel  Vona       John Jay College of Criminal ~       54       11       -43
##  2 Barbara  Kimmelman Philadelphia University              59       20       -39
##  3 Zeno  Swijtink     Sonoma State University              51       15       -36
##  4 Daniel  Rodeheaver University of North Texas            49       14       -35
##  5 Elle  Feth         Columbus State Community Coll~       50       15       -35
##  6 Dorathea  Halpert  Brooklyn College                     52       18       -34
##  7 Michael  Scarlatos Pace University (all)                40        6       -34
##  8 Clare  Johnson     Fashion Institute of Technolo~       45       14       -31
##  9 Phyllis  Hirsch    East Los Angeles College             47       17       -30
## 10 Denise  Kelly      Central Connecticut State Uni~       49       20       -29
## # ... with 1,392 more rows
```
…
```r
professor %>% 
  group_by(school_name) %>% 
  summarize(number_of_professor_reviews = n()) %>% 
  arrange(desc(number_of_professor_reviews))
```

```
## `summarise()` ungrouping output (override with `.groups` argument)
```

```
## # A tibble: 554 x 2
##    school_name                                        number_of_professor_revie~
##    <chr>                                                                   <int>
##  1 Volunteer State Community College                                         860
##  2 Eastern Kentucky University                                               478
##  3 University of Alabama                                                     428
##  4 John Jay College of Criminal Justice                                      331
##  5 Georgia State University Perimeter College - Deca~                        301
##  6 Philadelphia University                                                   298
##  7 Sonoma State University                                                   271
##  8 Denison University                                                        270
##  9 Brooklyn College                                                          256
## 10 Brandon University                                                        236
## # ... with 544 more rows
```
…
